%YAML 1.1
%TAG !u! tag:unity3d.com,2011:
--- !u!114 &11400000
MonoBehaviour:
  m_ObjectHideFlags: 0
  m_CorrespondingSourceObject: {fileID: 0}
  m_PrefabInstance: {fileID: 0}
  m_PrefabAsset: {fileID: 0}
  m_GameObject: {fileID: 0}
  m_Enabled: 1
  m_EditorHideFlags: 0
  m_Script: {fileID: 11500000, guid: c300c9b5083f4ec2a9013d00204d4400, type: 3}
  m_Name: Medium Ship Config
  m_EditorClassIdentifier: 
  health: 3
  attack: 1
  ammo: 3
  fuel: 10
